\relax 
\providecommand\HyperFirstAtBeginDocument{\AtBeginDocument}
\HyperFirstAtBeginDocument{\ifx\hyper@anchor\@undefined
\global\let\oldcontentsline\contentsline
\gdef\contentsline#1#2#3#4{\oldcontentsline{#1}{#2}{#3}}
\global\let\oldnewlabel\newlabel
\gdef\newlabel#1#2{\newlabelxx{#1}#2}
\gdef\newlabelxx#1#2#3#4#5#6{\oldnewlabel{#1}{{#2}{#3}}}
\AtEndDocument{\ifx\hyper@anchor\@undefined
\let\contentsline\oldcontentsline
\let\newlabel\oldnewlabel
\fi}
\fi}
\global\let\hyper@last\relax 
\gdef\HyperFirstAtBeginDocument#1{#1}
\providecommand\HyField@AuxAddToFields[1]{}
\citation{Fienberg2007bk}
\citation{Dobra2000pap}
\citation{Joe1997bk}
\@writefile{toc}{\contentsline {section}{\numberline {1}Introduction}{1}{section.1}}
\newlabel{sec:intro}{{1}{1}{Introduction\relax }{section.1}{}}
\citation{Chen2007pap}
\citation{Vardi1996pap}
\citation{Castro2004pap}
\citation{Rachev1999pap}
\citation{Blitzstein2011pap}
\citation{Chatterjee2010pap}
\citation{Orth2010prim}
\@writefile{lof}{\contentsline {figure}{\numberline {1}{\ignorespaces Frechet bounds define a tight bounding box for the solution polytope $ \mathcal  {P} $. }}{2}{figure.1}}
\newlabel{fig:bound_box}{{1}{2}{Frechet bounds define a tight bounding box for the solution polytope $ \mathcal {P} $}{figure.1}{}}
\newlabel{init_syst}{{1}{2}{Introduction\relax }{figure.1}{}}
\newlabel{thm:nnztmin}{{1.1}{3}{\relax }{thm.1.1}{}}
\@writefile{toc}{\contentsline {section}{\numberline {2}The geometry of the solution space}{3}{section.2}}
\newlabel{sec:geomsol}{{2}{3}{The geometry of the solution space\relax }{section.2}{}}
\newlabel{eq:Axy_xnn}{{1}{3}{The geometry of the solution space\relax }{equation.2.1}{}}
\@writefile{toc}{\contentsline {subsection}{\numberline {2.1}Proof of Theorem \ref  {thm:nnztmin}}{4}{subsection.2.1}}
\newlabel{sec:thm1proof}{{2.1}{4}{Proof of Theorem \ref {thm:nnztmin}\relax }{subsection.2.1}{}}
\@writefile{lof}{\contentsline {figure}{\numberline {2}{\ignorespaces An example where the unconstrained solution space has dimension $ n-m = 2 $ and $ n = 5 $ hyperplanes of coordinates, and the solution polytope $ \mathcal  {S} $ is a triangle. By pushing $ H_1 $ by $ t_{min} $ the hyperplane intersects $ \mathcal  {S} $ for the first time and by $ t_{max} $ for the last time.}}{5}{figure.2}}
\newlabel{fig:bdhyp5}{{2}{5}{An example where the unconstrained solution space has dimension $ n-m = 2 $ and $ n = 5 $ hyperplanes of coordinates, and the solution polytope $ \mathcal {S} $ is a triangle. By pushing $ H_1 $ by $ t_{min} $ the hyperplane intersects $ \mathcal {S} $ for the first time and by $ t_{max} $ for the last time}{figure.2}{}}
\@writefile{toc}{\contentsline {section}{\numberline {3}The linear algebra of the solution space}{5}{section.3}}
\newlabel{sec:linalg}{{3}{5}{The linear algebra of the solution space\relax }{section.3}{}}
\@writefile{toc}{\contentsline {subsection}{\numberline {3.1}finding a first pseudo vertex}{5}{subsection.3.1}}
\newlabel{sec:1pvert}{{3.1}{5}{finding a first pseudo vertex\relax }{subsection.3.1}{}}
\newlabel{eq:hermitedec}{{2}{6}{finding a first pseudo vertex\relax }{equation.3.2}{}}
\newlabel{prop:Q2}{{3.2}{6}{\relax }{thm.3.2}{}}
\@writefile{loa}{\contentsline {algorithm}{\numberline {1}{\ignorespaces getPV($A$, $y$)}}{7}{algorithm.1}}
\newlabel{algo:getpv}{{1}{7}{finding a first pseudo vertex\relax }{algorithm.1}{}}
\@writefile{toc}{\contentsline {subsection}{\numberline {3.2}Pivoting}{7}{subsection.3.2}}
\newlabel{sec:pivsolsp}{{3.2}{7}{Pivoting\relax }{subsection.3.2}{}}
\@writefile{toc}{\contentsline {subsubsection}{\numberline {3.2.1}Pivoting pseudo-vertices}{7}{subsubsection.3.2.1}}
\@writefile{loa}{\contentsline {algorithm}{\numberline {2}{\ignorespaces xPivot($x$,$Q_2$,$i$,$j$)}}{8}{algorithm.2}}
\newlabel{algo:xpivot}{{2}{8}{Pivoting pseudo-vertices\relax }{algorithm.2}{}}
\newlabel{xpivot:newx}{{2}{8}{Pivoting pseudo-vertices\relax }{ALC@unique.9}{}}
\newlabel{xpivot:swap}{{3}{8}{Pivoting pseudo-vertices\relax }{ALC@unique.10}{}}
\@writefile{loa}{\contentsline {algorithm}{\numberline {3}{\ignorespaces geti($x$,$Q_2$,$j$)}}{8}{algorithm.3}}
\newlabel{algo:geti}{{3}{8}{Pivoting pseudo-vertices\relax }{algorithm.3}{}}
\newlabel{geti:i}{{5}{8}{Pivoting pseudo-vertices\relax }{ALC@unique.16}{}}
\newlabel{lem:nonewneg}{{3.6}{8}{\relax }{thm.3.6}{}}
\@writefile{lof}{\contentsline {figure}{\numberline {3}{\ignorespaces An example where $ n-m = 2 $ and $ n = 5 $. The first (unconstrained) solution to $ Ax = y $ is a pseudo-vertex $ x^{(0)} $ (with sign vector $ [++-\tmspace  +\thinmuskip {.1667em}\tmspace  +\thinmuskip {.1667em}0\tmspace  +\thinmuskip {.1667em}\tmspace  +\thinmuskip {.1667em}0] $). To get to a vertex of the solution polytope (a non-negative solution of $ Ax = y $), we need to pivot from $ x^{(0)} $ to $ x^{(1)} $ to $ x^{(2)} $. The null space basis gets pivoted as well from $ Q^{(0)}_2 = (q_1, q_2) $ to $ Q^{(1)}_2 = (q'_1, q'_2) $ to $ Q^{(2)}_2 = (q''_1, q''_2) $.}}{9}{figure.3}}
\newlabel{fig:solspace5}{{3}{9}{An example where $ n-m = 2 $ and $ n = 5 $. The first (unconstrained) solution to $ Ax = y $ is a pseudo-vertex $ x^{(0)} $ (with sign vector $ [++-\,\,0\,\,0] $). To get to a vertex of the solution polytope (a non-negative solution of $ Ax = y $), we need to pivot from $ x^{(0)} $ to $ x^{(1)} $ to $ x^{(2)} $. The null space basis gets pivoted as well from $ Q^{(0)}_2 = (q_1, q_2) $ to $ Q^{(1)}_2 = (q'_1, q'_2) $ to $ Q^{(2)}_2 = (q''_1, q''_2) $}{figure.3}{}}
\@writefile{toc}{\contentsline {subsubsection}{\numberline {3.2.2}Pivoting the null space basis}{9}{subsubsection.3.2.2}}
\@writefile{loa}{\contentsline {algorithm}{\numberline {4}{\ignorespaces QPivot($Q_2$, $\pi $, $i$, $j$)}}{10}{algorithm.4}}
\newlabel{algo:qpivot}{{4}{10}{Pivoting the null space basis\relax }{algorithm.4}{}}
\newlabel{qpivot:0out}{{2}{10}{Pivoting the null space basis\relax }{ALC@unique.20}{}}
\newlabel{qpivot:normalize}{{4}{10}{Pivoting the null space basis\relax }{ALC@unique.22}{}}
\newlabel{qpivot:rowswap}{{5}{10}{Pivoting the null space basis\relax }{ALC@unique.23}{}}
\newlabel{qpivot:permupdate}{{6}{10}{Pivoting the null space basis\relax }{ALC@unique.24}{}}
\@writefile{toc}{\contentsline {section}{\numberline {4}Moving in the solution space}{10}{section.4}}
\newlabel{sec:movsolsp}{{4}{10}{Moving in the solution space\relax }{section.4}{}}
\@writefile{toc}{\contentsline {subsection}{\numberline {4.1}Moving to an adjacent pseudo-vertex}{11}{subsection.4.1}}
\newlabel{sec:nextpv}{{4.1}{11}{Moving to an adjacent pseudo-vertex\relax }{subsection.4.1}{}}
\@writefile{loa}{\contentsline {algorithm}{\numberline {5}{\ignorespaces nextPV\_1($x$, $Q_2$, $\pi $, $i^*$, $s$) \# Generic case}}{11}{algorithm.5}}
\newlabel{algo:nextpv1}{{5}{11}{Moving to an adjacent pseudo-vertex\relax }{algorithm.5}{}}
\newlabel{nextpv1:getij}{{1}{11}{Moving to an adjacent pseudo-vertex\relax }{ALC@unique.26}{}}
\newlabel{nextpv1:ceki}{{4}{11}{Moving to an adjacent pseudo-vertex\relax }{ALC@unique.29}{}}
\newlabel{nextpvgen:getipiv}{{5}{11}{Moving to an adjacent pseudo-vertex\relax }{ALC@unique.30}{}}
\newlabel{nextpvgen:qpivot}{{6}{11}{Moving to an adjacent pseudo-vertex\relax }{ALC@unique.31}{}}
\newlabel{prop:nextpv}{{4.1}{11}{\relax }{thm.4.1}{}}
\@writefile{toc}{\contentsline {subsection}{\numberline {4.2}Finding a first vertex}{11}{subsection.4.2}}
\newlabel{sec:1vert}{{4.2}{11}{Finding a first vertex\relax }{subsection.4.2}{}}
\newlabel{thm:getvert}{{4.2}{11}{\relax }{thm.4.2}{}}
\@writefile{loa}{\contentsline {algorithm}{\numberline {6}{\ignorespaces getVert($x$, $Q_2$, $\pi $)}}{12}{algorithm.6}}
\newlabel{algo:getvert}{{6}{12}{Finding a first vertex\relax }{algorithm.6}{}}
\newlabel{getvert:while}{{1}{12}{Finding a first vertex\relax }{ALC@unique.36}{}}
\newlabel{getvert:istar}{{2}{12}{Finding a first vertex\relax }{ALC@unique.37}{}}
\newlabel{getvert:nextpv}{{3}{12}{Finding a first vertex\relax }{ALC@unique.38}{}}
\@writefile{toc}{\contentsline {section}{\numberline {5}The bounding algorithm}{12}{section.5}}
\newlabel{sec:bdalgo}{{5}{12}{The bounding algorithm\relax }{section.5}{}}
\newlabel{thm:bds}{{5.1}{12}{\relax }{thm.5.1}{}}
\@writefile{loa}{\contentsline {algorithm}{\numberline {7}{\ignorespaces getBound($x$, $Q_2$, $\pi $, $i^*$, $s$)}}{12}{algorithm.7}}
\newlabel{algo:getbound}{{7}{12}{The bounding algorithm\relax }{algorithm.7}{}}
\newlabel{getbound:nextv}{{4}{12}{The bounding algorithm\relax }{ALC@unique.44}{}}
\citation{Dantzig1998bk}
\citation{Matousek2007bk}
\citation{Matousek2007bk}
\citation{Smale1983pap}
\citation{Gartner1994pap}
\citation{Matousek1996pap}
\@writefile{toc}{\contentsline {section}{\numberline {6}Discussion on the algorithm's complexity}{13}{section.6}}
\@writefile{toc}{\contentsline {section}{\numberline {7}Experiments}{14}{section.7}}
\@writefile{toc}{\contentsline {subsection}{\numberline {7.1}Partially filled contingency tables}{14}{subsection.7.1}}
\@writefile{lof}{\contentsline {figure}{\numberline {4}{\ignorespaces A selection of $ 4 $ partially filled contingency tables yields the barplots above where the first bar corresponds to the Frechet bounds (unfilled table) for the first entry. Every subsequent bar corresponds to the generalized bounds for the first entry in the table being cumulatively filled by a new entry (the coordinate number of which is below the bar). Light grey bars represent the maximum, dark grey ones the minimum. The final partially filled table is displayed below the barplot. }}{15}{figure.4}}
\newlabel{fig:pfillct}{{4}{15}{A selection of $ 4 $ partially filled contingency tables yields the barplots above where the first bar corresponds to the Frechet bounds (unfilled table) for the first entry. Every subsequent bar corresponds to the generalized bounds for the first entry in the table being cumulatively filled by a new entry (the coordinate number of which is below the bar). Light grey bars represent the maximum, dark grey ones the minimum. The final partially filled table is displayed below the barplot}{figure.4}{}}
\citation{Cao2000pap}
\@writefile{toc}{\contentsline {subsection}{\numberline {7.2}Network tomography}{16}{subsection.7.2}}
\@writefile{toc}{\contentsline {subsubsection}{\numberline {7.2.1}Basics of network tomography}{16}{subsubsection.7.2.1}}
\@writefile{lof}{\contentsline {figure}{\numberline {5}{\ignorespaces An example of $2$-router network with link traffic (at time $47$). What are the bounds for the traffic between each pair of computers? }}{17}{figure.5}}
\newlabel{fig:2rout}{{5}{17}{An example of $2$-router network with link traffic (at time $47$). What are the bounds for the traffic between each pair of computers?\relax }{figure.5}{}}
\@writefile{lof}{\contentsline {figure}{\numberline {6}{\ignorespaces Time series of the traffic range for $ b\_b $ (up) and $ a\_e $ (bottom) over $ 288 $ time points. }}{18}{figure.6}}
\newlabel{fig:rangets}{{6}{18}{Time series of the traffic range for $ b\_b $ (up) and $ a\_e $ (bottom) over $ 288 $ time points}{figure.6}{}}
\@writefile{toc}{\contentsline {subsubsection}{\numberline {7.2.2}A time series of bounds}{18}{subsubsection.7.2.2}}
\@writefile{toc}{\contentsline {section}{\numberline {8}Appendix}{19}{section.8}}
\newlabel{sec:appendix}{{8}{19}{Appendix\relax }{section.8}{}}
\@writefile{toc}{\contentsline {subsection}{\numberline {8.1}Elementary moves in the general (generic and non-generic) case}{19}{subsection.8.1}}
\newlabel{sec:galpvmove}{{8.1}{19}{Elementary moves in the general (generic and non-generic) case\relax }{subsection.8.1}{}}
\@writefile{toc}{\contentsline {subsubsection}{\numberline {8.1.1}The preliminary algorithm for the general case}{19}{subsubsection.8.1.1}}
\newlabel{sec:prelmove}{{8.1.1}{19}{The preliminary algorithm for the general case\relax }{subsubsection.8.1.1}{}}
\@writefile{loa}{\contentsline {algorithm}{\numberline {8}{\ignorespaces nextPV\_2($x$, $Q_2$, $\pi $, $i^*$, s) \# Preliminary general version}}{19}{algorithm.8}}
\newlabel{algo:nextpv2}{{8}{19}{The preliminary algorithm for the general case\relax }{algorithm.8}{}}
\newlabel{nextpv2:checkdiff}{{4}{19}{The preliminary algorithm for the general case\relax }{ALC@unique.51}{}}
\newlabel{nextpv2:redolast}{{8}{19}{The preliminary algorithm for the general case\relax }{ALC@unique.55}{}}
\@writefile{lof}{\contentsline {figure}{\numberline {7}{\ignorespaces A non generic pseudo vertex $ x^{(0)} $ cannot move to a neighbor $ x^{(1)} $ along the directions $ Q_2 = (q_1, q_2, q_3) $ provided. By blowing it up into an inifinitesimal polytope $ x^{(0)} $ becomes a generic vertex $ x^{(01)} $. By (virtual) pivoting to $ x^{(02)} $, the directions change to $ Q'_2 = (q'_1, q'_2, q'_3) $. Now we can reach $ x^{(1)} $ from $ x^{(02)} $ along $ q'_2 $. }}{20}{figure.7}}
\newlabel{fig:virt3D}{{7}{20}{A non generic pseudo vertex $ x^{(0)} $ cannot move to a neighbor $ x^{(1)} $ along the directions $ Q_2 = (q_1, q_2, q_3) $ provided. By blowing it up into an inifinitesimal polytope $ x^{(0)} $ becomes a generic vertex $ x^{(01)} $. By (virtual) pivoting to $ x^{(02)} $, the directions change to $ Q'_2 = (q'_1, q'_2, q'_3) $. Now we can reach $ x^{(1)} $ from $ x^{(02)} $ along $ q'_2 $}{figure.7}{}}
\@writefile{toc}{\contentsline {subsubsection}{\numberline {8.1.2}The definitive algorithm for the general case}{21}{subsubsection.8.1.2}}
\newlabel{sec:bettermove}{{8.1.2}{21}{The definitive algorithm for the general case\relax }{subsubsection.8.1.2}{}}
\@writefile{loa}{\contentsline {algorithm}{\numberline {9}{\ignorespaces tryGetij($x$, $Q_2$, $ I_0 $, $ i^* $, s)}}{21}{algorithm.9}}
\newlabel{algo:trygetij}{{9}{21}{The definitive algorithm for the general case\relax }{algorithm.9}{}}
\newlabel{trygetij:J}{{1}{21}{The definitive algorithm for the general case\relax }{ALC@unique.57}{}}
\newlabel{trygetij:JmK}{{3}{21}{The definitive algorithm for the general case\relax }{ALC@unique.59}{}}
\newlabel{trygetij:geti}{{4}{21}{The definitive algorithm for the general case\relax }{ALC@unique.60}{}}
\newlabel{trygetij:ceki}{{5}{21}{The definitive algorithm for the general case\relax }{ALC@unique.61}{}}
\@writefile{loa}{\contentsline {algorithm}{\numberline {10}{\ignorespaces getij($ x $, $Q_2$, $ \pi $, $I_0$, $i^*$, s)}}{22}{algorithm.10}}
\newlabel{algo:getij}{{10}{22}{The definitive algorithm for the general case\relax }{algorithm.10}{}}
\newlabel{getij:trygetij1}{{1}{22}{The definitive algorithm for the general case\relax }{ALC@unique.66}{}}
\newlabel{getij:randj}{{7}{22}{The definitive algorithm for the general case\relax }{ALC@unique.72}{}}
\newlabel{getij:k}{{8}{22}{The definitive algorithm for the general case\relax }{ALC@unique.73}{}}
\newlabel{getij:qpivot}{{9}{22}{The definitive algorithm for the general case\relax }{ALC@unique.74}{}}
\newlabel{getij:trygetij2}{{11}{22}{The definitive algorithm for the general case\relax }{ALC@unique.76}{}}
\newlabel{nextpv3:endwhile}{{12}{22}{The definitive algorithm for the general case\relax }{ALC@unique.77}{}}
\newlabel{prop:getij}{{8.2}{22}{\relax }{thm.8.2}{}}
\bibdata{../bibtex/gen_frech}
\bibcite{Blitzstein2011pap}{1}
\@writefile{loa}{\contentsline {algorithm}{\numberline {11}{\ignorespaces nextPV\_3($x$, $Q_2$, $\pi $, $i^*$, s) \# definitive general version}}{23}{algorithm.11}}
\newlabel{algo:nextpv3}{{11}{23}{The definitive algorithm for the general case\relax }{algorithm.11}{}}
\newlabel{nextpv3:I0}{{1}{23}{The definitive algorithm for the general case\relax }{ALC@unique.79}{}}
\newlabel{nextpv3:getij}{{2}{23}{The definitive algorithm for the general case\relax }{ALC@unique.80}{}}
\newlabel{nextpv3:xpivot}{{6}{23}{The definitive algorithm for the general case\relax }{ALC@unique.84}{}}
\bibcite{Cao2000pap}{2}
\bibcite{Castro2004pap}{3}
\bibcite{Chatterjee2010pap}{4}
\bibcite{Chen2007pap}{5}
\bibcite{Dantzig1998bk}{6}
\bibcite{Dobra2000pap}{7}
\bibcite{Fienberg2007bk}{8}
\bibcite{Gartner1994pap}{9}
\bibcite{Joe1997bk}{10}
\bibcite{Matousek1996pap}{11}
\bibcite{Matousek2007bk}{12}
\bibcite{Orth2010prim}{13}
\bibcite{Rachev1999pap}{14}
\bibcite{Smale1983pap}{15}
\bibcite{Vardi1996pap}{16}
\bibstyle{plain}
