\BOOKMARK [1][-]{section.1}{Introduction}{}% 1
\BOOKMARK [1][-]{section.2}{The geometry of the solution space}{}% 2
\BOOKMARK [2][-]{subsection.2.1}{Proof of Theorem 1.1}{section.2}% 3
\BOOKMARK [1][-]{section.3}{The linear algebra of the solution space}{}% 4
\BOOKMARK [2][-]{subsection.3.1}{finding a first pseudo vertex}{section.3}% 5
\BOOKMARK [2][-]{subsection.3.2}{Pivoting}{section.3}% 6
\BOOKMARK [3][-]{subsubsection.3.2.1}{Pivoting pseudo-vertices}{subsection.3.2}% 7
\BOOKMARK [3][-]{subsubsection.3.2.2}{Pivoting the null space basis}{subsection.3.2}% 8
\BOOKMARK [1][-]{section.4}{Moving in the solution space}{}% 9
\BOOKMARK [2][-]{subsection.4.1}{Moving to an adjacent pseudo-vertex}{section.4}% 10
\BOOKMARK [2][-]{subsection.4.2}{Finding a first vertex}{section.4}% 11
\BOOKMARK [1][-]{section.5}{The bounding algorithm}{}% 12
\BOOKMARK [1][-]{section.6}{Discussion on the algorithm's complexity}{}% 13
\BOOKMARK [1][-]{section.7}{Experiments}{}% 14
\BOOKMARK [2][-]{subsection.7.1}{Partially filled contingency tables}{section.7}% 15
\BOOKMARK [2][-]{subsection.7.2}{Network tomography}{section.7}% 16
\BOOKMARK [3][-]{subsubsection.7.2.1}{Basics of network tomography}{subsection.7.2}% 17
\BOOKMARK [3][-]{subsubsection.7.2.2}{A time series of bounds}{subsection.7.2}% 18
\BOOKMARK [1][-]{section.8}{Appendix}{}% 19
\BOOKMARK [2][-]{subsection.8.1}{Elementary moves in the general \(generic and non-generic\) case}{section.8}% 20
\BOOKMARK [3][-]{subsubsection.8.1.1}{The preliminary algorithm for the general case}{subsection.8.1}% 21
\BOOKMARK [3][-]{subsubsection.8.1.2}{The definitive algorithm for the general case}{subsection.8.1}% 22
