\relax 
\providecommand\HyperFirstAtBeginDocument{\AtBeginDocument}
\HyperFirstAtBeginDocument{\ifx\hyper@anchor\@undefined
\global\let\oldcontentsline\contentsline
\gdef\contentsline#1#2#3#4{\oldcontentsline{#1}{#2}{#3}}
\global\let\oldnewlabel\newlabel
\gdef\newlabel#1#2{\newlabelxx{#1}#2}
\gdef\newlabelxx#1#2#3#4#5#6{\oldnewlabel{#1}{{#2}{#3}}}
\AtEndDocument{\ifx\hyper@anchor\@undefined
\let\contentsline\oldcontentsline
\let\newlabel\oldnewlabel
\fi}
\fi}
\global\let\hyper@last\relax 
\gdef\HyperFirstAtBeginDocument#1{#1}
\providecommand\HyField@AuxAddToFields[1]{}
\citation{Fienberg2007bk}
\citation{Dobra2000pap}
\citation{Joe1997bk}
\citation{Chen2007pap}
\citation{Vardi1996pap}
\citation{Castro2004pap}
\citation{Rachev1999pap}
\citation{Blitzstein2011pap}
\citation{Chatterjee2010pap}
\citation{Orth2010prim}
\@writefile{toc}{\contentsline {section}{\numberline {1}Introduction}{1}{section.1}}
\newlabel{sec:intro}{{1}{1}{Introduction\relax }{section.1}{}}
\@writefile{toc}{\contentsline {subsection}{\numberline {1.1}Motivations}{1}{subsection.1.1}}
\newlabel{init_syst}{{1.1}{1}{Motivations\relax }{figure.1}{}}
\citation{Fukuda2004lk}
\@writefile{lof}{\contentsline {figure}{\numberline {1}{\ignorespaces Frechet bounds define a tight bounding box for the solution polytope $ \mathcal  {P} $. }}{2}{figure.1}}
\newlabel{fig:bound_box}{{1}{2}{Frechet bounds define a tight bounding box for the solution polytope $ \mathcal {P} $}{figure.1}{}}
\@writefile{toc}{\contentsline {subsection}{\numberline {1.2}Setting and results}{2}{subsection.1.2}}
\newlabel{eq:Axy_xnn}{{1}{2}{Setting and results\relax }{equation.1.1}{}}
\newlabel{thm:nnztmin}{{1.3}{2}{\relax }{thm.1.3}{}}
\@writefile{toc}{\contentsline {section}{\numberline {2}Polyhedral geometry in the solution space}{2}{section.2}}
\newlabel{sec:geomsol}{{2}{2}{Polyhedral geometry in the solution space\relax }{section.2}{}}
\@writefile{toc}{\contentsline {subsection}{\numberline {2.1}Proof of Theorem \ref  {thm:nnztmin}}{3}{subsection.2.1}}
\newlabel{sec:thm1proof}{{2.1}{3}{Proof of Theorem \ref {thm:nnztmin}\relax }{subsection.2.1}{}}
\@writefile{lof}{\contentsline {figure}{\numberline {2}{\ignorespaces An example where the solution space has dimension $ n-m = 2 $ and $ n = 5 $ hyperplanes of coordinates, and the solution polytope $ \mathcal  {S} $ is a triangle. By pushing $ H_1 $ by $ t_{min} $ the hyperplane intersects $ \mathcal  {S} $ for the first time and by $ t_{max} $ for the last time.}}{3}{figure.2}}
\newlabel{fig:bdhyp5}{{2}{3}{An example where the solution space has dimension $ n-m = 2 $ and $ n = 5 $ hyperplanes of coordinates, and the solution polytope $ \mathcal {S} $ is a triangle. By pushing $ H_1 $ by $ t_{min} $ the hyperplane intersects $ \mathcal {S} $ for the first time and by $ t_{max} $ for the last time}{figure.2}{}}
\@writefile{toc}{\contentsline {section}{\numberline {3}Discrete geometry in the solution space}{3}{section.3}}
\newlabel{sec:linalg}{{3}{3}{Discrete geometry in the solution space\relax }{section.3}{}}
\newlabel{eq:hermitedec}{{2}{3}{Discrete geometry in the solution space\relax }{equation.3.2}{}}
\newlabel{prop:Q2}{{3.2}{4}{\relax }{thm.3.2}{}}
\newlabel{def:pivot}{{3.3}{4}{\relax }{thm.3.3}{}}
\@writefile{toc}{\contentsline {section}{\numberline {4}Network geometry in the solution space}{4}{section.4}}
\newlabel{sec:pivsolsp}{{4}{4}{Network geometry in the solution space\relax }{section.4}{}}
\@writefile{toc}{\contentsline {subsection}{\numberline {4.1}Pivoting pseudo-vertices}{4}{subsection.4.1}}
\@writefile{loa}{\contentsline {algorithm}{\numberline {1}{\ignorespaces xPivot($x$,$Q_2$;$i$,$j$)}}{4}{algorithm.1}}
\newlabel{algo:xpivot}{{1}{4}{Pivoting pseudo-vertices\relax }{algorithm.1}{}}
\newlabel{xpivot:newx}{{2}{4}{Pivoting pseudo-vertices\relax }{ALC@unique.2}{}}
\newlabel{xpivot:swap}{{3}{4}{Pivoting pseudo-vertices\relax }{ALC@unique.3}{}}
\@writefile{loa}{\contentsline {algorithm}{\numberline {2}{\ignorespaces get\_i($x$,$Q_2$,$j$)}}{5}{algorithm.2}}
\newlabel{algo:geti}{{2}{5}{Pivoting pseudo-vertices\relax }{algorithm.2}{}}
\newlabel{geti:i}{{5}{5}{Pivoting pseudo-vertices\relax }{ALC@unique.9}{}}
\newlabel{lem:nonewneg}{{4.4}{5}{\relax }{thm.4.4}{}}
\@writefile{toc}{\contentsline {subsection}{\numberline {4.2}Pivoting the null space basis}{5}{subsection.4.2}}
\@writefile{loa}{\contentsline {algorithm}{\numberline {3}{\ignorespaces QPivot($Q_2$, $\pi $, $i$, $j$)}}{5}{algorithm.3}}
\newlabel{algo:qpivot}{{3}{5}{Pivoting the null space basis\relax }{algorithm.3}{}}
\newlabel{qpivot:0out}{{2}{5}{Pivoting the null space basis\relax }{ALC@unique.13}{}}
\newlabel{qpivot:normalize}{{4}{5}{Pivoting the null space basis\relax }{ALC@unique.15}{}}
\newlabel{qpivot:rowswap}{{5}{5}{Pivoting the null space basis\relax }{ALC@unique.16}{}}
\newlabel{qpivot:permupdate}{{6}{5}{Pivoting the null space basis\relax }{ALC@unique.17}{}}
\@writefile{loa}{\contentsline {algorithm}{\numberline {4}{\ignorespaces Pivot($x$, $Q_2$, $\pi $, $j$)}}{5}{algorithm.4}}
\newlabel{algo:pivot}{{4}{5}{Pivoting the null space basis\relax }{algorithm.4}{}}
\@writefile{toc}{\contentsline {section}{\numberline {5}The bounding algorithm}{5}{section.5}}
\newlabel{sec:bdalgo}{{5}{5}{The bounding algorithm\relax }{section.5}{}}
\citation{Bazaraa2009bk}
\@writefile{loa}{\contentsline {algorithm}{\numberline {5}{\ignorespaces get\_gF\_bounds($A$, $y$)}}{6}{algorithm.5}}
\newlabel{algo:getgFb}{{5}{6}{The bounding algorithm\relax }{algorithm.5}{}}
\@writefile{toc}{\contentsline {subsection}{\numberline {5.1}Discussion of the complexity of the algorithm}{6}{subsection.5.1}}
\@writefile{toc}{\contentsline {section}{\numberline {6}Experiments}{6}{section.6}}
\newlabel{sec:experim}{{6}{6}{Experiments\relax }{section.6}{}}
\@writefile{toc}{\contentsline {subsection}{\numberline {6.1}Partially filled contingency tables}{6}{subsection.6.1}}
\citation{Cao2000pap}
\@writefile{toc}{\contentsline {subsection}{\numberline {6.2}Network tomography}{7}{subsection.6.2}}
\@writefile{toc}{\contentsline {subsubsection}{\numberline {6.2.1}Basics of network tomography}{7}{subsubsection.6.2.1}}
\@writefile{lof}{\contentsline {figure}{\numberline {3}{\ignorespaces A selection of $ 4 $ partially filled contingency tables yields the barplots above where the first bar corresponds to the Fr\'echet bounds (unfilled table) for the first entry. Every subsequent bar corresponds to the generalized bounds for the first entry in the table being cumulatively filled by a new entry (the coordinate number of which is below the bar). Light grey bars represent the maximum, dark grey ones the minimum. The final partially filled table is displayed below the barplot. }}{7}{figure.3}}
\newlabel{fig:pfillct}{{3}{7}{A selection of $ 4 $ partially filled contingency tables yields the barplots above where the first bar corresponds to the Fr\'echet bounds (unfilled table) for the first entry. Every subsequent bar corresponds to the generalized bounds for the first entry in the table being cumulatively filled by a new entry (the coordinate number of which is below the bar). Light grey bars represent the maximum, dark grey ones the minimum. The final partially filled table is displayed below the barplot}{figure.3}{}}
\citation{Cao2000pap}
\citation{Cao2000pap}
\bibdata{../bibtex/gen_frech}
\bibcite{Bazaraa2009bk}{1}
\@writefile{lof}{\contentsline {figure}{\numberline {4}{\ignorespaces An example of $2$-router network with link traffic (at time $47$). What are the bounds for the traffic between each pair of computers? }}{8}{figure.4}}
\newlabel{fig:2rout}{{4}{8}{An example of $2$-router network with link traffic (at time $47$). What are the bounds for the traffic between each pair of computers?\relax }{figure.4}{}}
\@writefile{toc}{\contentsline {subsubsection}{\numberline {6.2.2}Minimum bound data analysis}{8}{subsubsection.6.2.2}}
\@writefile{toc}{\contentsline {section}{\numberline {7}Conclusion}{8}{section.7}}
\bibcite{Blitzstein2011pap}{2}
\bibcite{Cao2000pap}{3}
\bibcite{Castro2004pap}{4}
\bibcite{Chatterjee2010pap}{5}
\bibcite{Chen2007pap}{6}
\bibcite{Dobra2000pap}{7}
\bibcite{Fienberg2007bk}{8}
\bibcite{Fukuda2004lk}{9}
\bibcite{Joe1997bk}{10}
\bibcite{Orth2010prim}{11}
\bibcite{Rachev1999pap}{12}
\bibcite{Vardi1996pap}{13}
\bibstyle{plain}
