\relax 
\providecommand\HyperFirstAtBeginDocument{\AtBeginDocument}
\HyperFirstAtBeginDocument{\ifx\hyper@anchor\@undefined
\global\let\oldcontentsline\contentsline
\gdef\contentsline#1#2#3#4{\oldcontentsline{#1}{#2}{#3}}
\global\let\oldnewlabel\newlabel
\gdef\newlabel#1#2{\newlabelxx{#1}#2}
\gdef\newlabelxx#1#2#3#4#5#6{\oldnewlabel{#1}{{#2}{#3}}}
\AtEndDocument{\ifx\hyper@anchor\@undefined
\let\contentsline\oldcontentsline
\let\newlabel\oldnewlabel
\fi}
\fi}
\global\let\hyper@last\relax 
\gdef\HyperFirstAtBeginDocument#1{#1}
\providecommand\HyField@AuxAddToFields[1]{}
\citation{Fienberg2007bk}
\citation{Dobra2000pap}
\citation{Joe1997bk}
\citation{Chen2007pap}
\citation{Vardi1996pap}
\citation{Castro2004pap}
\citation{Rachev1999pap}
\citation{Blitzstein2011pap}
\citation{Chatterjee2010pap}
\citation{Orth2010prim}
\@writefile{toc}{\contentsline {section}{\numberline {1}Introduction}{1}{section.1}}
\newlabel{sec:intro}{{1}{1}{Introduction\relax }{section.1}{}}
\@writefile{toc}{\contentsline {subsection}{\numberline {1.1}Background and motivations}{1}{subsection.1.1}}
\newlabel{sec:motivations}{{1.1}{1}{Background and motivations\relax }{subsection.1.1}{}}
\newlabel{eq:Fb}{{1}{1}{Background and motivations\relax }{equation.1.1}{}}
\newlabel{init_syst}{{1.1}{1}{Background and motivations\relax }{figure.1}{}}
\citation{Dobra2010pap}
\@writefile{lof}{\contentsline {figure}{\numberline {1}{\ignorespaces Frechet bounds define a tight bounding box around the solution polytope $ P $. }}{2}{figure.1}}
\newlabel{fig:bound_box}{{1}{2}{Frechet bounds define a tight bounding box around the solution polytope $ P $}{figure.1}{}}
\citation{Fukuda2004lk}
\@writefile{toc}{\contentsline {subsection}{\numberline {1.2}Setting and results}{3}{subsection.1.2}}
\newlabel{sec:results}{{1.2}{3}{Setting and results\relax }{subsection.1.2}{}}
\newlabel{eq:Axb_xnn}{{2}{3}{Setting and results\relax }{equation.1.2}{}}
\newlabel{def:redundant}{{1.1}{3}{\relax }{thm.1.1}{}}
\newlabel{def:Fbd}{{1.2}{3}{\relax }{thm.1.2}{}}
\newlabel{prop:n0+bd}{{1.4}{3}{\relax }{thm.1.4}{}}
\citation{chen2005pap}
\newlabel{prop:minzervert}{{1.5}{4}{\relax }{thm.1.5}{}}
\newlabel{prop:allFbd}{{1.6}{4}{\relax }{thm.1.6}{}}
\newlabel{prop:simplif_Axy}{{1.7}{4}{\relax }{thm.1.7}{}}
\@writefile{toc}{\contentsline {subsubsection}{\numberline {1.2.1}More specific motivations}{4}{subsubsection.1.2.1}}
\@writefile{toc}{\contentsline {section}{\numberline {2}Polyhedral Geometry}{5}{section.2}}
\newlabel{sec:polyh_geom}{{2}{5}{Polyhedral Geometry\relax }{section.2}{}}
\newlabel{eq:ctexple}{{3}{5}{Polyhedral Geometry\relax }{equation.2.3}{}}
\newlabel{eq:2d6h1r}{{4}{6}{Polyhedral Geometry\relax }{equation.2.4}{}}
\@writefile{lof}{\contentsline {figure}{\numberline {2}{\ignorespaces The solution polytope from (\ref  {eq:2d6h1r}) in context.}}{7}{figure.2}}
\newlabel{fig:nobound_hypl_n6}{{2}{7}{The solution polytope from (\ref {eq:2d6h1r}) in context}{figure.2}{}}
\@writefile{toc}{\contentsline {section}{\numberline {3}Polyhedral Algebra}{8}{section.3}}
\newlabel{sec:polyh_alg}{{3}{8}{Polyhedral Algebra\relax }{section.3}{}}
\newlabel{eq:IQ12xv1}{{5}{8}{Polyhedral Algebra\relax }{equation.3.5}{}}
\newlabel{eq:polyh_ineq}{{6}{8}{Polyhedral Algebra\relax }{equation.3.6}{}}
\newlabel{eq:getx1}{{7}{8}{Polyhedral Algebra\relax }{equation.3.7}{}}
\newlabel{prop:Qbasis}{{3.1}{8}{\relax }{thm.3.1}{}}
\@writefile{toc}{\contentsline {section}{\numberline {4}Finding Frechet bounds}{9}{section.4}}
\newlabel{sec:findFb}{{4}{9}{Finding Frechet bounds\relax }{section.4}{}}
\@writefile{toc}{\contentsline {subsection}{\numberline {4.1}Geometrically removing a potentially redundant $ H_1 $}{9}{subsection.4.1}}
\newlabel{sec:redundance}{{4.1}{9}{Geometrically removing a potentially redundant $ H_1 $\relax }{subsection.4.1}{}}
\newlabel{eq:3d6h1r}{{8}{10}{Geometrically removing a potentially redundant $ H_1 $\relax }{equation.4.8}{}}
\newlabel{eq:3d6h1r_ineq}{{9}{10}{Geometrically removing a potentially redundant $ H_1 $\relax }{equation.4.9}{}}
\@writefile{lof}{\contentsline {figure}{\numberline {3}{\ignorespaces The projected solution polytope $ P_2 $ from system (\ref  {eq:3d6h1r}). Hyperplanes $ H_1, H_2, H_4, H_5 $ are structural and $ H_3 $ is redundant. All $ 5 $ meet at the same vertex $ v^{(1)} = (0,0,1) $.}}{10}{figure.3}}
\newlabel{fig:3d6h1r}{{3}{10}{The projected solution polytope $ P_2 $ from system (\ref {eq:3d6h1r}). Hyperplanes $ H_1, H_2, H_4, H_5 $ are structural and $ H_3 $ is redundant. All $ 5 $ meet at the same vertex $ v^{(1)} = (0,0,1) $}{figure.3}{}}
\newlabel{eq:Pminvert}{{10}{11}{Geometrically removing a potentially redundant $ H_1 $\relax }{equation.4.10}{}}
\newlabel{prop:miniPPp}{{4.1}{12}{\relax }{thm.4.1}{}}
\@writefile{toc}{\contentsline {subsection}{\numberline {4.2}Algebraically removing $ H_1 $}{12}{subsection.4.2}}
\newlabel{sec:algremH1}{{4.2}{12}{Algebraically removing $ H_1 $\relax }{subsection.4.2}{}}
\newlabel{eq:lpPp}{{11}{12}{Algebraically removing $ H_1 $\relax }{equation.4.11}{}}
\newlabel{eq:Pp_ineq}{{12}{13}{Algebraically removing $ H_1 $\relax }{equation.4.12}{}}
\@writefile{toc}{\contentsline {subsection}{\numberline {4.3}The Generalized Frechet Bound Algorithm}{13}{subsection.4.3}}
\newlabel{sec:genFbalgo}{{4.3}{13}{The Generalized Frechet Bound Algorithm\relax }{subsection.4.3}{}}
\newlabel{prop:getFbd1}{{4.2}{13}{\relax }{thm.4.2}{}}
\@writefile{loa}{\contentsline {algorithm}{\numberline {1}{\ignorespaces Frechet\_bound($Q_{12}$, $v_1$)}}{13}{algorithm.1}}
\newlabel{algo:getFbd1}{{1}{13}{The Generalized Frechet Bound Algorithm\relax }{algorithm.1}{}}
\newlabel{getFbd1:line1}{{1}{13}{The Generalized Frechet Bound Algorithm\relax }{ALC@unique.1}{}}
\newlabel{getFbd1:polyh_alg}{{2}{13}{The Generalized Frechet Bound Algorithm\relax }{ALC@unique.2}{}}
\newlabel{getFbd1:LP}{{3}{13}{The Generalized Frechet Bound Algorithm\relax }{ALC@unique.3}{}}
\newlabel{getFbd1:minipos}{{4}{13}{The Generalized Frechet Bound Algorithm\relax }{ALC@unique.4}{}}
\newlabel{getFbd1:minizero}{{7}{13}{The Generalized Frechet Bound Algorithm\relax }{ALC@unique.7}{}}
\newlabel{getFbd1:minineg}{{11}{13}{The Generalized Frechet Bound Algorithm\relax }{ALC@unique.11}{}}
\@writefile{toc}{\contentsline {subsection}{\numberline {4.4}Looping through Frechet bounds}{14}{subsection.4.4}}
\newlabel{sec:loopFbd}{{4.4}{14}{Looping through Frechet bounds\relax }{subsection.4.4}{}}
\@writefile{loa}{\contentsline {algorithm}{\numberline {2}{\ignorespaces all\_Frechet\_bounds($A$, $y$)}}{14}{algorithm.2}}
\newlabel{algo:allFbd}{{2}{14}{Looping through Frechet bounds\relax }{algorithm.2}{}}
\newlabel{allFbd:forloop}{{2}{14}{Looping through Frechet bounds\relax }{ALC@unique.14}{}}
\@writefile{loa}{\contentsline {algorithm}{\numberline {3}{\ignorespaces remove\_redundant($A$, $y$, $FB$)}}{15}{algorithm.3}}
\newlabel{algo:remred}{{3}{15}{Looping through Frechet bounds\relax }{algorithm.3}{}}
\newlabel{remred:Ired}{{2}{15}{Looping through Frechet bounds\relax }{ALC@unique.22}{}}
\newlabel{remred:forloop}{{3}{15}{Looping through Frechet bounds\relax }{ALC@unique.23}{}}
\newlabel{remred:relabelpi}{{7}{15}{Looping through Frechet bounds\relax }{ALC@unique.27}{}}
\@writefile{toc}{\contentsline {subsection}{\numberline {4.5}Comments}{15}{subsection.4.5}}
\newlabel{sec:comments}{{4.5}{15}{Comments\relax }{subsection.4.5}{}}
\@writefile{toc}{\contentsline {section}{\numberline {5}Experiments}{15}{section.5}}
\newlabel{sec:experim}{{5}{15}{Experiments\relax }{section.5}{}}
\@writefile{toc}{\contentsline {subsection}{\numberline {5.1}Partially filled contingency tables}{15}{subsection.5.1}}
\newlabel{sec:partfilledct}{{5.1}{15}{Partially filled contingency tables\relax }{subsection.5.1}{}}
\@writefile{toc}{\contentsline {subsection}{\numberline {5.2}Network tomography}{16}{subsection.5.2}}
\newlabel{sec:netwtom}{{5.2}{16}{Network tomography\relax }{subsection.5.2}{}}
\@writefile{toc}{\contentsline {subsubsection}{\numberline {5.2.1}Basics of network tomography}{16}{subsubsection.5.2.1}}
\citation{Cao2000pap}
\@writefile{lof}{\contentsline {figure}{\numberline {4}{\ignorespaces A selection of $ 4 $ partially filled contingency tables yields the barplots above where the first bar corresponds to the Fr\'echet bounds (unfilled table) for the first entry. Every subsequent bar corresponds to the generalized bounds for the first entry in the table being cumulatively filled by a new entry (the coordinate number of which is below the bar). Light grey bars represent the maximum, dark grey ones the minimum. The final partially filled table is displayed below the barplot. }}{17}{figure.4}}
\newlabel{fig:pfillct}{{4}{17}{A selection of $ 4 $ partially filled contingency tables yields the barplots above where the first bar corresponds to the Fr\'echet bounds (unfilled table) for the first entry. Every subsequent bar corresponds to the generalized bounds for the first entry in the table being cumulatively filled by a new entry (the coordinate number of which is below the bar). Light grey bars represent the maximum, dark grey ones the minimum. The final partially filled table is displayed below the barplot}{figure.4}{}}
\citation{Cao2000pap}
\@writefile{lof}{\contentsline {figure}{\numberline {5}{\ignorespaces An example of $2$-router network with link traffic (at time $47$). What are the bounds for the traffic between each pair of computers? }}{18}{figure.5}}
\newlabel{fig:2rout}{{5}{18}{An example of $2$-router network with link traffic (at time $47$). What are the bounds for the traffic between each pair of computers?\relax }{figure.5}{}}
\@writefile{toc}{\contentsline {subsubsection}{\numberline {5.2.2}Minimum bound data analysis}{19}{subsubsection.5.2.2}}
\@writefile{toc}{\contentsline {section}{\numberline {6}Conclusion}{19}{section.6}}
\bibstyle{plainnat}
\bibdata{bibtex/gen_frech}
\bibcite{Blitzstein2011pap}{{1}{2011}{{Blitzstein}}{{}}}
\bibcite{Cao2000pap}{{2}{2000}{{Cao et~al.}}{{Cao, Davis, Wiel, and Yu}}}
\bibcite{Castro2004pap}{{3}{2004}{{Castro et~al.}}{{Castro, Coates, Liang, Nowak, and Yu}}}
\bibcite{Chatterjee2010pap}{{4}{2010}{{Chatterjee et~al.}}{{Chatterjee, Diaconis, and Sly}}}
\bibcite{Chen2007pap}{{5}{2007}{{Chen}}{{}}}
\bibcite{chen2005pap}{{6}{2005}{{Chen et~al.}}{{Chen, Diaconis, Holmes, and Liu}}}
\bibcite{Dobra2000pap}{{7}{2000}{{Dobra and Fienberg}}{{}}}
\bibcite{Fienberg2007bk}{{8}{2007}{{Fienberg}}{{}}}
\bibcite{Fukuda2004lk}{{9}{}{{Fukuda}}{{}}}
\bibcite{Joe1997bk}{{10}{1997}{{Joe}}{{}}}
\bibcite{Orth2010prim}{{11}{2010}{{Orth et~al.}}{{Orth, Thiele, and Palsson}}}
\bibcite{Rachev1999pap}{{12}{1999}{{Rachev and Olkin}}{{}}}
\bibcite{Vardi1996pap}{{13}{1996}{{Vardi}}{{}}}
\@writefile{toc}{\contentsline {section}{References}{20}{section*.2}}
