\BOOKMARK [1][-]{section.1}{Introduction}{}% 1
\BOOKMARK [2][-]{subsection.1.1}{Motivations}{section.1}% 2
\BOOKMARK [2][-]{subsection.1.2}{Setting and results}{section.1}% 3
\BOOKMARK [1][-]{section.2}{Polyhedral Geometry}{}% 4
\BOOKMARK [1][-]{section.3}{Polyhedral Algebra}{}% 5
\BOOKMARK [1][-]{section.4}{Finding Frechet bounds}{}% 6
\BOOKMARK [2][-]{subsection.4.1}{Geometrically removing a potentially redundant \040H1 }{section.4}% 7
\BOOKMARK [2][-]{subsection.4.2}{Algebraically removing \040H1 }{section.4}% 8
\BOOKMARK [2][-]{subsection.4.3}{The Generalized Frechet Bound Algorithm}{section.4}% 9
\BOOKMARK [2][-]{subsection.4.4}{Looping through Frechet bounds}{section.4}% 10
\BOOKMARK [2][-]{subsection.4.5}{Comments}{section.4}% 11
\BOOKMARK [1][-]{section.5}{Experiments}{}% 12
\BOOKMARK [2][-]{subsection.5.1}{Partially filled contingency tables}{section.5}% 13
\BOOKMARK [2][-]{subsection.5.2}{Network tomography}{section.5}% 14
\BOOKMARK [3][-]{subsubsection.5.2.1}{Basics of network tomography}{subsection.5.2}% 15
\BOOKMARK [3][-]{subsubsection.5.2.2}{Minimum bound data analysis}{subsection.5.2}% 16
\BOOKMARK [1][-]{section.6}{Conclusion}{}% 17
